{
    "color": {
        "primary": "339C65",
        "home_greeting_text": "29ADB2",
        "default_account_bg": "7C93C3",
        "highlight_account_type_bg": "A25772",
        "bg_home_color_1": "139D61",
        "bg_home_color_2": "1C1C1C",
        "bg_menu": "1D3127",
        "menu_border": "1D3127",
        "text_menu": "FFFFFF",
        "text": "FFFFFF",
        "action_text": "FFFFFF",
        "bg_widget": "33FFFFFF"
    },
    "image": {
        "home_bg": "Assets/Light/premier_home_bg_light.png",
        "home_season_bg": "",
        "ic_new_account": "Assets/Light/ic_new_account.png",
        "ic_payment": "Assets/Light/ic_payment.png",
        "ic_td": "Assets/Light/ic_td.png",
        "ic_transfer": "Assets/Light/ic_transfer.png",
        "ic_withdrawal": "Assets/Light/ic_withdrawal.png",
        "ic_account": "Assets/Light/ic_wallet.png",
        "ic_tab_scan": "Assets/Light/ic_tab_scan.png"
    }
}